{
    "/js/app.js": "/js/app.js",
    "/credito-real/js/app_backoffice.js": "/credito-real/js/app_backoffice.js",
    "/credito-real/css/credito-real-usa.css": "/credito-real/css/credito-real-usa.css",
    "/css/app.css": "/css/app.css",
    "/credito-real/js/all.js": "/credito-real/js/all.js",
    "/credito-real/js/all_facematch.js": "/credito-real/js/all_facematch.js"
}
