<?xml version="1.0" encoding="utf-8"?>
<!-- Generator: Adobe Illustrator 24.1.0, SVG Export Plug-In . SVG Version: 6.00 Build 0)  -->
<svg version="1.1" id="Capa_1" xmlns="http://www.w3.org/2000/svg" xmlns:xlink="http://www.w3.org/1999/xlink" x="0px" y="0px"
	 viewBox="0 0 196.96 89.43" style="enable-background:new 0 0 196.96 89.43;" xml:space="preserve">
<style type="text/css">
	.st0{fill-rule:evenodd;clip-rule:evenodd;fill:#17243C;}
	.st1{clip-path:url(#SVGID_2_);}
	.st2{fill:#233567;}
	.st3{clip-path:url(#SVGID_4_);}
	.st4{fill:#1B408D;}
	.st5{clip-path:url(#SVGID_6_);}
	.st6{fill:#266FB6;}
	.st7{fill-rule:evenodd;clip-rule:evenodd;fill:#FFFFFF;}
	.st8{fill:#17243C;}
	.st9{fill:#231E21;}
</style>
<g>
	<g>
		<g>
			<rect x="15.07" y="14.65" class="st0" width="59.84" height="59.84"/>
		</g>
		<g>
			<g>
				<defs>
					<rect id="SVGID_1_" x="15.07" y="14.65" width="59.84" height="59.84"/>
				</defs>
				<clipPath id="SVGID_2_">
					<use xlink:href="#SVGID_1_"  style="overflow:visible;"/>
				</clipPath>
				<g class="st1">
					<path class="st2" d="M-50.39,74.22c0-36.08,29.25-65.33,65.33-65.33c36.08,0,65.33,29.25,65.33,65.33s-29.25,65.33-65.33,65.33
						S-50.39,110.3-50.39,74.22"/>
				</g>
			</g>
			<g>
				<defs>
					<rect id="SVGID_3_" x="15.07" y="14.65" width="59.84" height="59.84"/>
				</defs>
				<clipPath id="SVGID_4_">
					<use xlink:href="#SVGID_3_"  style="overflow:visible;"/>
				</clipPath>
				<g class="st3">
					<path class="st4" d="M-31.1,74.35c0-25.41,20.6-46.01,46.01-46.01s46.02,20.6,46.02,46.01s-20.6,46.01-46.02,46.01
						S-31.1,99.76-31.1,74.35"/>
				</g>
			</g>
			<g>
				<defs>
					<rect id="SVGID_5_" x="15.07" y="14.65" width="59.84" height="59.84"/>
				</defs>
				<clipPath id="SVGID_6_">
					<use xlink:href="#SVGID_5_"  style="overflow:visible;"/>
				</clipPath>
				<g class="st5">
					<path class="st6" d="M-10.61,74.09c0-14.23,11.54-25.78,25.77-25.78c14.23,0,25.77,11.54,25.77,25.78S29.4,99.87,15.17,99.87
						S-10.61,88.33-10.61,74.09"/>
				</g>
			</g>
		</g>
		<g>
			<polygon class="st7" points="49.71,46.69 50.21,46.69 50.21,48.93 52.42,48.93 52.42,49.39 50.21,49.39 50.21,51.64 49.71,51.64 
				49.71,49.39 47.47,49.39 47.47,48.93 49.71,48.93 			"/>
		</g>
		<g>
			<polygon class="st7" points="64.22,27.36 65.52,27.36 65.52,31.53 69.68,31.53 69.68,32.84 65.52,32.84 65.52,37 64.22,37 
				64.22,32.84 60.05,32.84 60.05,31.53 64.22,31.53 			"/>
		</g>
		<g>
			<polygon class="st7" points="42.28,23.45 42.7,23.45 42.7,24.78 44.03,24.78 44.03,25.2 42.7,25.2 42.7,26.54 42.28,26.54 
				42.28,25.2 40.94,25.2 40.94,24.78 42.28,24.78 			"/>
		</g>
		<g>
			<path class="st8" d="M107.83,17.48l0.23-0.97l6.12-1.48l-0.22,1.85L107.83,17.48z M82.69,25.73c0,3.25,2.21,5.65,5.1,5.65
				c1.15,0,2.17-0.11,3.08-0.49l0.51,1.89c-1.17,0.47-2.27,0.6-3.59,0.6c-4.25,0-7.48-3.3-7.48-7.65c0-4.36,3.23-7.65,7.48-7.65
				c1.32,0,2.42,0.13,3.59,0.62l-0.51,1.87c-0.85-0.32-1.91-0.49-3.08-0.49C84.9,20.08,82.69,22.67,82.69,25.73 M101.8,33.17
				l-3.42-6.04h-2.61v6.04h-2.38V18.29H98c3.59,0,5.57,2.02,5.57,4.42c0,1.74-1,3.23-2.85,3.95l3.78,6.5H101.8z M98,20.29h-2.23
				v4.84H98c2.17,0,3.19-0.98,3.19-2.42C101.19,21.29,100.16,20.29,98,20.29 M115.53,33.17h-9.11V18.29h9.11v2h-6.73v4.27h6.4v2
				h-6.4v4.61h6.73V33.17z M118.06,33.17V18.29h4.27c4.61,0,7.7,3.21,7.7,7.44c0,4.23-3.08,7.44-7.7,7.44H118.06z M122.33,20.29
				h-1.89v10.88h1.89c3.26,0,5.32-2.32,5.32-5.44C127.64,22.78,125.58,20.29,122.33,20.29 M132.64,18.29h2.38v14.88h-2.38V18.29z
				 M147.88,20.29h-4.1v12.88h-2.38V20.29h-4.23v-2h10.71L147.88,20.29L147.88,20.29z M149.13,25.73c0-4.36,3.32-7.65,7.52-7.65
				c4.08,0,7.54,3.29,7.54,7.65s-3.31,7.65-7.54,7.65C152.45,33.38,149.13,30.09,149.13,25.73 M151.51,25.73
				c0,3.25,2.15,5.65,5.14,5.65c2.94,0,5.17-2.4,5.17-5.65c0-3.06-2.15-5.65-5.17-5.65C153.66,20.08,151.51,22.67,151.51,25.73
				 M89.17,52.28l-3.42-6.03h-2.61v6.03h-2.38V37.4h4.61c3.59,0,5.57,2.02,5.57,4.42c0,1.74-1,3.23-2.85,3.95l3.78,6.5H89.17z
				 M85.37,39.4h-2.23v4.84h2.23c2.17,0,3.19-0.98,3.19-2.42C88.56,40.4,87.54,39.4,85.37,39.4 M102.9,52.28h-9.12V37.4h9.12v2
				h-6.74v4.27h6.4v1.99h-6.4v4.62h6.74V52.28z M114.95,52.28l-1.36-3.89h-5.59l-1.36,3.89h-2.59l5.61-14.88h2.27l5.61,14.88H114.95
				z M110.53,41.16l-1.85,5.27h4.23l-1.83-5.27l-0.21-0.98h-0.13L110.53,41.16z M119.5,52.27V37.4h2.38v12.88h6.27v1.99L119.5,52.27
				L119.5,52.27z"/>
		</g>
		<g>
			<g>
				<rect x="80.87" y="56.95" class="st9" width="91.17" height="0.84"/>
			</g>
		</g>
		<g>
			<g>
				<rect x="80.87" y="74.06" class="st9" width="91.17" height="0.84"/>
			</g>
		</g>
	</g>
	<g>
		<path class="st6" d="M81.23,62.07h2.2c1.81,0,2.77,0.92,2.77,2.03c0,0.69-0.4,1.28-1.06,1.55v0.06c0.95,0.24,1.49,0.97,1.49,1.8
			c0,1.12-0.96,2.03-2.77,2.03h-2.63V62.07z M82.43,63.07v2.2h1.15c0.98,0,1.42-0.48,1.42-1.12c0-0.59-0.47-1.08-1.53-1.08H82.43z
			 M82.43,66.23v2.31h1.47c1.04,0,1.53-0.46,1.53-1.09c0-0.69-0.45-1.22-1.42-1.22H82.43z"/>
		<path class="st6" d="M93.83,66.87c0,1.68-1.32,2.77-3.02,2.77c-1.7,0-3.01-1.1-3.01-2.77v-4.8h1.2v4.8c0,1.12,0.8,1.77,1.81,1.77
			c0.99,0,1.83-0.65,1.83-1.77v-4.8h1.2V66.87z"/>
		<path class="st6" d="M95.37,68.22c0.62,0.22,1.17,0.38,1.91,0.38c0.69,0,1.35-0.33,1.35-1.11c0-0.6-0.38-0.92-1.45-1.26
			c-1.13-0.38-2.06-1.01-2.06-2.12c0-1.45,1.2-2.15,2.49-2.15c0.78,0,1.43,0.18,2.09,0.46l-0.26,0.98c-0.6-0.24-1.12-0.4-1.84-0.4
			c-0.65,0-1.25,0.35-1.25,1.06c0,0.53,0.42,0.88,1.43,1.24c1.19,0.43,2.08,1.01,2.08,2.13c0,1.53-1.26,2.21-2.59,2.21
			c-0.75,0-1.47-0.18-2.16-0.46L95.37,68.22z"/>
		<path class="st6" d="M101.28,62.07h1.2v7.47h-1.2V62.07z"/>
		<path class="st6" d="M105.84,64.62l-0.38-0.67l-0.06,0.02v5.57h-1.2v-7.47h1.11l3.64,5l0.36,0.63l0.06-0.02v-5.61h1.2v7.47h-1.11
			L105.84,64.62z"/>
		<path class="st6" d="M112.24,69.54v-7.47h4.58v1h-3.38v2.15h3.21v1h-3.21v2.32h3.38v1L112.24,69.54L112.24,69.54z"/>
		<path class="st6" d="M118.07,68.22c0.62,0.22,1.17,0.38,1.91,0.38c0.69,0,1.36-0.33,1.36-1.11c0-0.6-0.38-0.92-1.45-1.26
			c-1.13-0.38-2.06-1.01-2.06-2.12c0-1.45,1.2-2.15,2.49-2.15c0.78,0,1.43,0.18,2.09,0.46l-0.26,0.98c-0.6-0.24-1.12-0.4-1.84-0.4
			c-0.65,0-1.25,0.35-1.25,1.06c0,0.53,0.42,0.88,1.43,1.24c1.19,0.43,2.08,1.01,2.08,2.13c0,1.53-1.26,2.21-2.6,2.21
			c-0.75,0-1.47-0.18-2.16-0.46L118.07,68.22z"/>
		<path class="st6" d="M123.8,68.22c0.62,0.22,1.17,0.38,1.91,0.38c0.69,0,1.36-0.33,1.36-1.11c0-0.6-0.38-0.92-1.45-1.26
			c-1.13-0.38-2.06-1.01-2.06-2.12c0-1.45,1.2-2.15,2.49-2.15c0.78,0,1.43,0.18,2.09,0.46l-0.26,0.98c-0.6-0.24-1.12-0.4-1.84-0.4
			c-0.65,0-1.25,0.35-1.25,1.06c0,0.53,0.42,0.88,1.43,1.24c1.19,0.43,2.08,1.01,2.08,2.13c0,1.53-1.26,2.21-2.6,2.21
			c-0.75,0-1.47-0.18-2.16-0.46L123.8,68.22z"/>
		<path class="st6" d="M135.49,68.64c0.58,0,1.09-0.05,1.55-0.24l0.26,0.95c-0.59,0.24-1.14,0.3-1.8,0.3
			c-2.13,0-3.76-1.65-3.76-3.84c0-2.19,1.62-3.84,3.76-3.84c0.66,0,1.22,0.06,1.8,0.31l-0.26,0.94c-0.43-0.16-0.96-0.24-1.55-0.24
			c-1.45,0-2.56,1.3-2.56,2.84C132.93,67.44,134.04,68.64,135.49,68.64z"/>
		<path class="st6" d="M142.4,67.59h-2.81l-0.68,1.95h-1.3l2.82-7.47h1.14l2.82,7.47h-1.3L142.4,67.59z M139.93,66.61h2.13
			l-0.92-2.65l-0.11-0.49h-0.06l-0.11,0.49L139.93,66.61z"/>
		<path class="st6" d="M145.37,62.07h2.68c1.86,0,2.86,1.01,2.86,2.33c0,1.32-1,2.33-2.86,2.33h-1.49v2.82h-1.2L145.37,62.07
			L145.37,62.07z M146.56,63.07v2.65h1.49c1.13,0,1.67-0.56,1.67-1.32c0-0.75-0.53-1.32-1.67-1.32L146.56,63.07L146.56,63.07z"/>
		<path class="st6" d="M152.14,62.07h1.2v7.47h-1.2V62.07z"/>
		<path class="st6" d="M157.73,63.07v6.47h-1.2v-6.47h-2.12v-1h5.38v1H157.73z"/>
		<path class="st6" d="M164.28,67.59h-2.81l-0.68,1.95h-1.3l2.82-7.47h1.14l2.82,7.47h-1.3L164.28,67.59z M161.81,66.61h2.13
			l-0.92-2.65l-0.11-0.49h-0.06l-0.11,0.49L161.81,66.61z"/>
		<path class="st6" d="M167.25,62.07h1.2v6.47h3.15v1h-4.34L167.25,62.07L167.25,62.07z"/>
	</g>
	<g>
		<g>
			<path class="st8" d="M145.93,47.06c0,3.24-2.56,5.37-5.84,5.37s-5.82-2.13-5.82-5.37v-9.3h2.31v9.3c0,2.17,1.55,3.43,3.51,3.43
				c1.92,0,3.53-1.26,3.53-3.43v-9.3h2.31L145.93,47.06L145.93,47.06z"/>
		</g>
		<g>
			<path class="st8" d="M148.9,49.66c1.2,0.44,2.27,0.74,3.7,0.74c1.34,0,2.62-0.64,2.62-2.15c0-1.16-0.74-1.78-2.81-2.44
				c-2.19-0.74-3.99-1.96-3.99-4.11c0-2.81,2.31-4.15,4.81-4.15c1.51,0,2.77,0.35,4.05,0.89l-0.5,1.9
				c-1.16-0.45-2.17-0.76-3.55-0.76c-1.26,0-2.42,0.68-2.42,2.04c0,1.03,0.81,1.72,2.77,2.4c2.29,0.83,4.03,1.96,4.03,4.13
				c0,2.95-2.44,4.28-5.02,4.28c-1.45,0-2.85-0.35-4.17-0.89L148.9,49.66z"/>
		</g>
		<g>
			<path class="st8" d="M167.99,48.45h-5.43l-1.32,3.78h-2.52l5.45-14.46h2.21l5.45,14.46h-2.52L167.99,48.45z M163.22,46.54h4.11
				l-1.78-5.12l-0.21-0.95h-0.12l-0.21,0.95L163.22,46.54z"/>
		</g>
	</g>
	<g>
		<g>
			<path class="st8" d="M174.42,15.18v4.25h-0.79v-4.25h-1.39v-0.66h3.53v0.66H174.42z"/>
		</g>
		<g>
			<path class="st8" d="M181.11,15.71l-0.04-0.01l-0.07,0.24l-1.53,3.47h-0.57l-1.53-3.47l-0.08-0.29l-0.04,0.01v3.76h-0.78v-4.9
				h1.04l1.6,3.68l0.08,0.3h0.04l0.08-0.3l1.59-3.68h1.02v4.9h-0.78L181.11,15.71L181.11,15.71z"/>
		</g>
	</g>
</g>
</svg>
