<?xml version="1.0" encoding="utf-8"?>
<!-- Generator: Adobe Illustrator 24.1.0, SVG Export Plug-In . SVG Version: 6.00 Build 0)  -->
<svg version="1.1" id="Capa_1" xmlns="http://www.w3.org/2000/svg" xmlns:xlink="http://www.w3.org/1999/xlink" x="0px" y="0px"
	 viewBox="0 0 156.26 105.25" style="enable-background:new 0 0 156.26 105.25;" xml:space="preserve">
<style type="text/css">
	.st0{clip-path:url(#SVGID_2_);}
	.st1{fill-rule:evenodd;clip-rule:evenodd;fill:#17243C;}
	.st2{clip-path:url(#SVGID_4_);}
	.st3{fill:#233567;}
	.st4{clip-path:url(#SVGID_6_);}
	.st5{fill:#1B408D;}
	.st6{clip-path:url(#SVGID_8_);}
	.st7{fill:#266FB6;}
	.st8{fill-rule:evenodd;clip-rule:evenodd;fill:#FFFFFF;}
	.st9{fill:#17243C;}
	.st10{fill:#231E21;}
	.st11{opacity:0.55;fill:#233568;}
	.st12{fill:#53A9DF;}
	.st13{fill:#53AAE0;}
	.st14{fill:#233568;}
	.st15{fill:#FFFFFF;}
	.st16{fill:none;stroke:#53AAE0;stroke-width:4.4502;stroke-linecap:round;stroke-linejoin:round;stroke-miterlimit:10;}
	.st17{clip-path:url(#SVGID_10_);}
	.st18{opacity:0.65;}
	.st19{filter:url(#Adobe_OpacityMaskFilter);}
	.st20{mask:url(#SVGID_11_);}
	.st21{filter:url(#Adobe_OpacityMaskFilter_1_);}
	.st22{mask:url(#SVGID_12_);}
	.st23{filter:url(#Adobe_OpacityMaskFilter_2_);}
	.st24{mask:url(#SVGID_13_);}
	.st25{filter:url(#Adobe_OpacityMaskFilter_3_);}
	.st26{mask:url(#SVGID_14_);}
</style>
<g>
	<path class="st12" d="M109.02,93.22c-0.84,0-1.6,0-2.51,0c1.17-6.37-0.36-11.82-5.12-16.14c-3.38-3.07-7.45-4.47-12.01-4.14
		c-8.21,0.6-16.89,7.97-14.83,20.19c-11.47,0-22.93,0-34.39,0c0.57-7.41-5.1-14.06-12.44-14.69c-7.14-0.61-15.31,4.97-14.85,14.89
		c-2.27-0.12-4.55-0.08-6.77-0.41c-2.16-0.32-3.55-2.34-3.56-5.01C2.49,77.68,2.46,67.45,2.54,57.21c0.03-3.46,2.8-6.42,6.47-7.28
		c2.3-0.54,4.6-1.05,7.27-1.66c-0.17-2.82-0.2-5.71-0.56-8.55c-0.2-1.58-1.29-2.13-3.57-2.44c0-1.08,0-2.17,0-3.26
		c4.59,0.07,7.22,2.69,7.23,7.14c0.01,2.03,0,4.06,0,6.29c1.51-0.29,2.92-0.5,4.29-0.87c0.29-0.08,0.6-0.68,0.62-1.07
		c0.08-1.21,0.01-2.42,0.04-3.64c0.04-1.51,1.09-2.48,2.61-2.48c1.51,0,2.56,0.98,2.63,2.48c0.02,0.53,0.01,1.07,0.01,1.6
		c0,0.53,0,1.06,0,1.74c2.29-0.5,4.48-0.95,6.65-1.49c0.26-0.06,0.56-0.52,0.6-0.83c0.71-5.9,1.37-11.81,2.08-17.71
		c0.73-6.09,1.5-12.18,2.25-18.28c0.11-0.86,0.18-1.72,0.28-2.66c14.87,0,29.65,0,44.48,0c4.54,18.99,9.08,37.95,13.65,57.04
		c3.01,0,6.03,0,9.19,0c0-0.6,0-1.17,0-1.74c0-18.29,0.01-36.58-0.02-54.87c0-1.57,0.23-3.2,1.8-3.59c1.54-0.38,3.33-0.26,4.89,0.13
		c1.13,0.28,1.52,1.58,1.51,2.87c-0.03,8.54-0.02,17.08-0.02,25.62c0,19.31,0,38.62,0,57.93c0,0.57,0,1.14,0,1.77
		c12.36,0.91,24.57,1.8,36.85,2.7c0,0.68,0,1.28,0,2.02c-12.09,0-24.15,0-36.18,0c-0.53,4.22-1.14,4.76-5.08,4.69
		C109.99,98.79,109.37,97.84,109.02,93.22z M42.31,61.77c16.74,0,32.95,0,49.22,0c-3.82-15.71-7.62-31.32-11.42-46.92
		c-11.18,0-22.21,0-33.29,0c-0.42,3.34-0.85,6.59-1.23,9.85c-0.72,6.04-1.55,12.07-2.08,18.13C42.96,49.08,42.7,55.35,42.31,61.77z"
		/>
	<path class="st12" d="M90.24,104.36c-8.07,0-14.7-6.82-14.67-15.08c0.03-8,6.76-14.64,14.82-14.61c8.16,0.03,14.89,6.74,14.7,14.83
		C104.87,98.63,97.53,104.67,90.24,104.36z"/>
	<path class="st12" d="M26.36,104.36c-6.69,0-12.26-5.46-12.13-12.25c0.13-7,5.71-11.87,12.16-11.9
		c6.45-0.03,12.03,5.59,11.97,11.94C38.29,98.94,32.96,104.36,26.36,104.36z"/>
</g>
</svg>
