<?xml version="1.0" encoding="utf-8"?>
<!-- Generator: Adobe Illustrator 24.1.0, SVG Export Plug-In . SVG Version: 6.00 Build 0)  -->
<svg version="1.1" id="Capa_1" xmlns="http://www.w3.org/2000/svg" xmlns:xlink="http://www.w3.org/1999/xlink" x="0px" y="0px"
	 viewBox="0 0 171.57 97.53" style="enable-background:new 0 0 171.57 97.53;" xml:space="preserve">
<style type="text/css">
	.st0{clip-path:url(#SVGID_2_);}
	.st1{fill-rule:evenodd;clip-rule:evenodd;fill:#17243C;}
	.st2{clip-path:url(#SVGID_4_);}
	.st3{fill:#233567;}
	.st4{clip-path:url(#SVGID_6_);}
	.st5{fill:#1B408D;}
	.st6{clip-path:url(#SVGID_8_);}
	.st7{fill:#266FB6;}
	.st8{fill-rule:evenodd;clip-rule:evenodd;fill:#FFFFFF;}
	.st9{fill:#17243C;}
	.st10{fill:#231E21;}
	.st11{opacity:0.55;fill:#233568;}
	.st12{fill:#53A9DF;}
	.st13{fill:#53AAE0;}
	.st14{fill:#233568;}
	.st15{fill:#FFFFFF;}
	.st16{fill:none;stroke:#53AAE0;stroke-width:4.4502;stroke-linecap:round;stroke-linejoin:round;stroke-miterlimit:10;}
	.st17{clip-path:url(#SVGID_10_);}
	.st18{opacity:0.65;}
	.st19{filter:url(#Adobe_OpacityMaskFilter);}
	.st20{mask:url(#SVGID_11_);}
	.st21{filter:url(#Adobe_OpacityMaskFilter_1_);}
	.st22{mask:url(#SVGID_12_);}
	.st23{filter:url(#Adobe_OpacityMaskFilter_2_);}
	.st24{mask:url(#SVGID_13_);}
	.st25{filter:url(#Adobe_OpacityMaskFilter_3_);}
	.st26{mask:url(#SVGID_14_);}
</style>
<g>
	<path class="st12" d="M39.27,31.05c5.35-2.09,8.54-5.82,9.81-11.4c1.59,1.43,3.11,2.78,4.61,4.15c5.27,4.78,10.52,9.58,15.83,14.32
		c0.46,0.41,1.25,0.44,2.08,0.72c0-2.28-0.04-4.26,0.03-6.23c0.02-0.5,0.25-1.11,0.59-1.46c7.85-8.1,15.73-16.17,23.6-24.24
		c1.1-1.13,2.15-2.3,3.28-3.39c0.31-0.3,0.82-0.54,1.24-0.55c7.44-0.03,14.89-0.03,22.33-0.02c0.12,0,0.23,0.04,0.48,0.09
		c0,10.12,0,20.25,0,30.49c11.27,0,22.41,0,33.7,0c0-2.41,0.01-4.82,0-7.23c-0.02-3.05-0.03-2.77,2.77-2.76c2.06,0,2.06,0,2.06,2.1
		c0,2.59,0,5.17,0,7.69c1.03,0.39,2.1,0.59,2.94,1.14c2.12,1.4,3.02,3.57,3.04,6.03c0.06,6.92,0.07,13.84,0.01,20.75
		c-0.02,2.49-1.01,4.58-3.37,5.74c-0.59,0.29-1.31,0.47-1.97,0.47c-30.7,0.02-61.41,0.02-92.11,0.02c-1.82,0-3.11-0.96-4.16-2.34
		c-2.44-3.21-4.83-6.46-7.33-9.62C52.29,47.36,45.81,39.27,39.27,31.05z M119.68,6.47c-0.64,0-1.12,0-1.59,0
		c-4.93,0-9.87,0.04-14.8-0.03c-1.45-0.02-2.5,0.27-3.59,1.4c-7.86,8.2-15.82,16.3-23.71,24.47c-0.44,0.46-0.77,1.24-0.78,1.87
		c-0.07,3.76-0.04,7.52-0.03,11.28c0,0.39,0.04,0.78,0.06,1.19c0.26,0.03,0.42,0.06,0.57,0.06c11.76,0,23.53,0.02,35.29-0.03
		c0.58,0,1.28-0.44,1.73-0.87c2.02-1.97,3.95-4.04,5.96-6.02c0.62-0.61,0.91-1.2,0.91-2.1c-0.03-9.91-0.02-19.82-0.02-29.73
		C119.68,7.54,119.68,7.1,119.68,6.47z"/>
	<path class="st12" d="M116.31,69.9c12.99,0,25.98,0,38.96,0c4.99,0,9.54,3.02,11.44,7.58c1.93,4.64,0.9,10.03-2.76,13.52
		c-2.51,2.4-5.52,3.66-9.09,3.51c-2.29-0.1-4.59,0.07-6.89,0.07c-14.32,0.01-28.65,0-42.97,0c-5.16,0-10.33,0.02-15.49-0.01
		c-4.4-0.02-8.81,0-13.21-0.18c-4.86-0.2-8.32-2.78-10.27-7.11C62.28,78.94,68.3,69.9,77.47,69.9
		C90.42,69.89,103.36,69.9,116.31,69.9z M116.15,72.55c-1.74,0-3.48,0-5.22,0c-11.28,0-22.57-0.01-33.85,0.01
		c-5.19,0.01-9.88,4.36-9.53,10.21c0.32,5.32,4.39,9.12,9.73,9.19c7.84,0.09,15.69,0.02,23.53,0.03
		c18.04,0.01,36.07,0.02,54.11,0.05c2.86,0,5.33-0.96,7.29-3c2.91-3.03,3.6-6.61,2.06-10.52c-1.43-3.65-5-5.95-9.05-5.95
		C142.19,72.54,129.17,72.55,116.15,72.55z"/>
	<path class="st12" d="M43.26,89.1c-0.6,0-1.07,0-1.54,0c-8.29,0-16.59,0.03-24.88-0.01C10.18,89.06,4.8,84.78,3.56,78.25
		c-0.42-2.2-0.07-4.56-0.07-7.25c0.85,0.38,1.61,0.53,2.11,0.97c3.91,3.44,9.61,3.45,13.46-0.1c0.68-0.63,1.28-0.8,2.01-0.23
		c7.3,5.69,14.6,11.38,21.9,17.07C43.05,88.77,43.09,88.87,43.26,89.1z"/>
	<path class="st12" d="M23.28,17.09C23.3,10.85,28.39,5.8,34.65,5.8c6.23,0,11.39,5.13,11.37,11.31C46,23.47,40.9,28.53,34.5,28.53
		C28.34,28.53,23.27,23.36,23.28,17.09z"/>
	<path class="st12" d="M19.53,57.23c-2.12-0.99-4.09-1.91-6.23-2.9c3.57-8.74,7.24-17.73,10.96-26.86c2.34,2.22,4.94,3.58,8.11,4.15
		C28.03,40.27,23.72,48.86,19.53,57.23z"/>
	<path class="st12" d="M12.4,57.97c3.76,0.03,6.6,2.96,6.55,6.76c-0.04,3.64-3.06,6.62-6.68,6.59c-3.64-0.03-6.73-3.15-6.68-6.77
		C5.65,60.85,8.65,57.94,12.4,57.97z"/>
	<path class="st12" d="M152.24,89.17c-3.85,0.02-6.93-3.01-6.99-6.88c-0.06-3.82,3.15-7.05,6.99-7.04c3.8,0.02,6.9,3.14,6.92,6.98
		C159.19,86.04,156.08,89.15,152.24,89.17z"/>
	<path class="st12" d="M80.37,89.16c-3.85,0-6.97-3.07-6.99-6.89c-0.02-3.83,3.2-7.06,7.02-7.02c3.77,0.04,6.97,3.25,6.96,6.99
		C87.34,86.04,84.19,89.16,80.37,89.16z"/>
	<path class="st12" d="M98.13,89.16c-3.85-0.1-6.93-3.32-6.78-7.09c0.15-3.86,3.31-6.9,7.09-6.82c3.79,0.08,6.92,3.32,6.84,7.07
		C105.2,86.22,102.02,89.26,98.13,89.16z"/>
	<path class="st12" d="M134.29,89.16c-3.84,0.02-6.96-3.01-7.03-6.86c-0.07-3.78,3.18-7.05,7-7.05c3.77,0.01,6.93,3.16,6.97,6.96
		C141.27,85.99,138.13,89.14,134.29,89.16z"/>
	<path class="st12" d="M116.24,89.16c-3.83,0.01-6.95-3.13-6.92-6.94c0.03-3.83,3.14-6.95,6.94-6.96c3.78-0.01,6.96,3.12,7.01,6.92
		C123.31,86.03,120.17,89.15,116.24,89.16z"/>
</g>
</svg>
