<?xml version="1.0" encoding="utf-8"?>
<!-- Generator: Adobe Illustrator 24.1.0, SVG Export Plug-In . SVG Version: 6.00 Build 0)  -->
<svg version="1.1" id="Capa_1" xmlns="http://www.w3.org/2000/svg" xmlns:xlink="http://www.w3.org/1999/xlink" x="0px" y="0px"
	 viewBox="0 0 118.3 118.47" style="enable-background:new 0 0 118.3 118.47;" xml:space="preserve">
<style type="text/css">
	.st0{clip-path:url(#SVGID_2_);}
	.st1{fill-rule:evenodd;clip-rule:evenodd;fill:#17243C;}
	.st2{clip-path:url(#SVGID_4_);}
	.st3{fill:#233567;}
	.st4{clip-path:url(#SVGID_6_);}
	.st5{fill:#1B408D;}
	.st6{clip-path:url(#SVGID_8_);}
	.st7{fill:#266FB6;}
	.st8{fill-rule:evenodd;clip-rule:evenodd;fill:#FFFFFF;}
	.st9{fill:#17243C;}
	.st10{fill:#231E21;}
	.st11{opacity:0.55;fill:#233568;}
	.st12{fill:#53A9DF;}
	.st13{fill:#53AAE0;}
	.st14{fill:#233568;}
	.st15{fill:#FFFFFF;}
	.st16{fill:none;stroke:#53AAE0;stroke-width:4.4502;stroke-linecap:round;stroke-linejoin:round;stroke-miterlimit:10;}
	.st17{clip-path:url(#SVGID_10_);}
	.st18{opacity:0.65;}
	.st19{filter:url(#Adobe_OpacityMaskFilter);}
	.st20{mask:url(#SVGID_11_);}
	.st21{filter:url(#Adobe_OpacityMaskFilter_1_);}
	.st22{mask:url(#SVGID_12_);}
	.st23{filter:url(#Adobe_OpacityMaskFilter_2_);}
	.st24{mask:url(#SVGID_13_);}
	.st25{filter:url(#Adobe_OpacityMaskFilter_3_);}
	.st26{mask:url(#SVGID_14_);}
	.st27{fill:#2C3F92;}
	.st28{filter:url(#Adobe_OpacityMaskFilter_4_);}
	.st29{mask:url(#SVGID_19_);}
	.st30{clip-path:url(#SVGID_21_);fill:#FFFFFF;}
	.st31{clip-path:url(#SVGID_27_);}
	.st32{filter:url(#Adobe_OpacityMaskFilter_5_);}
	.st33{mask:url(#SVGID_28_);}
	.st34{clip-path:url(#SVGID_30_);}
	.st35{filter:url(#Adobe_OpacityMaskFilter_6_);}
	.st36{mask:url(#SVGID_31_);}
	.st37{filter:url(#Adobe_OpacityMaskFilter_7_);}
	.st38{mask:url(#SVGID_32_);}
	.st39{filter:url(#Adobe_OpacityMaskFilter_8_);}
	.st40{mask:url(#SVGID_33_);}
	.st41{clip-path:url(#SVGID_35_);}
	.st42{filter:url(#Adobe_OpacityMaskFilter_9_);}
	.st43{mask:url(#SVGID_36_);}
	.st44{filter:url(#Adobe_OpacityMaskFilter_10_);}
	.st45{mask:url(#SVGID_43_);}
	.st46{opacity:0.4;fill:#16243D;}
	.st47{fill:none;}
	.st48{opacity:0.35;fill:#53AAE0;}
	.st49{opacity:0.35;}
	.st50{clip-path:url(#SVGID_47_);}
	.st51{fill:#F9F3E2;}
	.st52{fill:#4EAC5B;}
	.st53{fill:none;stroke:#FFFFFF;stroke-width:8;stroke-linecap:round;stroke-linejoin:round;stroke-miterlimit:10;}
	.st54{clip-path:url(#SVGID_49_);}
	.st55{clip-path:url(#SVGID_51_);}
	.st56{clip-path:url(#SVGID_53_);}
	.st57{clip-path:url(#SVGID_55_);}
</style>
<g>
	<path class="st13" d="M87.15,10.71c-9.68-5.54-20.09-7.97-31.19-7.43C31.17,4.48,9.57,22.87,4.41,47.16
		c-0.5,2.38-0.74,4.81-1.11,7.22c-0.04,0.24-0.14,0.48-0.21,0.72c0,2.77,0,5.54,0,8.31c0.21,1.47,0.42,2.93,0.64,4.4
		c1.95,12.48,7.51,23.09,16.58,31.84c7.62,7.36,16.65,12.16,27.01,14.37c2.27,0.48,4.6,0.69,6.9,1.04c0.32,0.05,0.63,0.14,0.95,0.21
		c2.63,0,5.25,0,7.88,0c1.97-0.28,3.96-0.52,5.92-0.86c10.75-1.9,20.14-6.59,28.13-13.99c9.37-8.68,15.12-19.37,17.31-31.94
		C118.38,45.74,107.23,22.2,87.15,10.71z"/>
	<polyline class="st53" points="29.2,69.23 46.88,82.44 89.42,38.15 	"/>
</g>
</svg>
